patient	sample	sampletype	datatype	unit	pair	path
Test1	P	cancer	DNA	all	1	test/fastq/abc_1.fq.gz
Test1	P	cancer	DNA	all	2	test/fastq/abc_2.fq.gz
Test1	R	PDX	DNA	all	1	test/fastq/abc_1.fq.gz
Test1	R	PDX	DNA	all	2	test/fastq/abc_2.fq.gz
Test1	G	normal	DNA	all	1	test/fastq/abc_1.fq.gz
Test1	G	normal	DNA	all	2	test/fastq/abc_2.fq.gz
Test2	P	cancer	DNA	all	1	test/fastq/abc_1.fq.gz
Test2	P	cancer	DNA	all	2	test/fastq/abc_2.fq.gz
Test2	PR	cancer	lncRNA	all	1	test/fastq/abc_1.fq.gz
Test2	PR	cancer	lncRNA	all	2	test/fastq/abc_2.fq.gz

